v 20130925 2
B 43300 45500 5500 3000 3 0 0 0 -1 -1 0 -1 -1 -1 -1 -1
P 44300 48900 44300 48500 1 0 0
{
T 44300 48900 5 10 0 0 0 0 1
pintype=unknown
T 44300 48445 5 10 1 1 90 6 1
pinlabel=Rx
T 44250 48595 5 10 1 1 90 0 1
pinnumber=3
T 44300 48900 5 10 0 0 0 0 1
pinseq=0
}
P 43900 48900 43900 48500 1 0 0
{
T 43900 48900 5 10 0 0 0 0 1
pintype=unknown
T 43900 48445 5 10 1 1 90 6 1
pinlabel=Tx
T 43850 48595 5 10 1 1 90 0 1
pinnumber=2
T 43900 48900 5 10 0 0 0 0 1
pinseq=0
}
P 43600 48900 43600 48500 1 0 0
{
T 43600 48900 5 10 0 0 0 0 1
pintype=unknown
T 43600 48445 5 10 1 1 90 6 1
pinlabel=Vcc
T 43550 48595 5 10 1 1 90 0 1
pinnumber=1
T 43600 48900 5 10 0 0 0 0 1
pinseq=0
}
P 44600 48900 44600 48500 1 0 0
{
T 44600 48900 5 10 0 0 0 0 1
pintype=unknown
T 44600 48445 5 10 1 1 90 6 1
pinlabel=Vss
T 44550 48595 5 10 1 1 90 0 1
pinnumber=4
T 44600 48900 5 10 0 0 0 0 1
pinseq=0
}
T 43900 48000 9 10 1 0 0 0 1
J3
P 48600 48900 48600 48500 1 0 0
{
T 48600 48900 5 10 0 0 0 0 1
pintype=unknown
T 48600 48445 5 10 1 1 90 6 1
pinlabel=Vss
T 48550 48595 5 10 1 1 90 0 1
pinnumber=7
T 48600 48900 5 10 0 0 0 0 1
pinseq=0
}
P 48300 48900 48300 48500 1 0 0
{
T 48300 48900 5 10 0 0 0 0 1
pintype=unknown
T 48300 48445 5 10 1 1 90 6 1
pinlabel=RA0
T 48250 48595 5 10 1 1 90 0 1
pinnumber=6
T 48300 48900 5 10 0 0 0 0 1
pinseq=0
}
P 48000 48900 48000 48500 1 0 0
{
T 48000 48900 5 10 0 0 0 0 1
pintype=unknown
T 48000 48445 5 10 1 1 90 6 1
pinlabel=RA1
T 47950 48595 5 10 1 1 90 0 1
pinnumber=5
T 48000 48900 5 10 0 0 0 0 1
pinseq=0
}
P 47400 48900 47400 48500 1 0 0
{
T 47400 48900 5 10 0 0 0 0 1
pintype=unknown
T 47400 48445 5 10 1 1 90 6 1
pinlabel=RB2
T 47350 48595 5 10 1 1 90 0 1
pinnumber=3
T 47400 48900 5 10 0 0 0 0 1
pinseq=0
}
P 47100 48900 47100 48500 1 0 0
{
T 47100 48900 5 10 0 0 0 0 1
pintype=unknown
T 47100 48445 5 10 1 1 90 6 1
pinlabel=RB3
T 47050 48595 5 10 1 1 90 0 1
pinnumber=2
T 47100 48900 5 10 0 0 0 0 1
pinseq=0
}
P 47700 48900 47700 48500 1 0 0
{
T 47700 48900 5 10 0 0 0 0 1
pintype=unknown
T 47700 48445 5 10 1 1 90 6 1
pinlabel=nc
T 47650 48595 5 10 1 1 90 0 1
pinnumber=4
T 47700 48900 5 10 0 0 0 0 1
pinseq=0
}
P 46800 48900 46800 48500 1 0 0
{
T 46800 48900 5 10 0 0 0 0 1
pintype=unknown
T 46800 48445 5 10 1 1 90 6 1
pinlabel=Vdd
T 46750 48595 5 10 1 1 90 0 1
pinnumber=1
T 46800 48900 5 10 0 0 0 0 1
pinseq=0
}
N 44300 48900 44300 50400 4
N 44300 50400 45500 50400 4
T 45600 50300 9 10 1 0 0 0 2
To GPS
Data Out
T 49300 49300 9 10 1 0 0 0 2
To
GPS ground
T 47900 49900 9 10 1 0 0 0 2
To
GPS power
N 48600 48900 48600 49400 4
N 48600 49400 49200 49400 4
N 46800 48900 46800 50000 4
N 46800 50000 47800 50000 4
T 47500 47800 9 10 1 0 0 0 1
J5
T 45200 46900 9 14 1 0 0 0 1
TFT Board
